[gd_resource type="TileSet" load_steps=4 format=2]

[ext_resource path="res://Tilesets/Demo/Grassfinal.png" type="Texture" id=1]
[ext_resource path="res://Tilesets/Demo/Grasstall.png" type="Texture" id=2]
[ext_resource path="res://Tilesets/Demo/Sand1.png" type="Texture" id=3]

[resource]
0/name = "Grass1"
0/texture = ExtResource( 1 )
0/tex_offset = Vector2( 0, 0 )
0/modulate = Color( 1, 1, 1, 1 )
0/region = Rect2( 0, 0, 34, 21 )
0/tile_mode = 0
0/occluder_offset = Vector2( 17, 10.5 )
0/navigation_offset = Vector2( 17, 10.5 )
0/shapes = [  ]
0/z_index = 0
1/name = "Grass2"
1/texture = ExtResource( 2 )
1/tex_offset = Vector2( 0, 0 )
1/modulate = Color( 1, 1, 1, 1 )
1/region = Rect2( 0, 0, 34, 21 )
1/tile_mode = 0
1/occluder_offset = Vector2( 17, 10.5 )
1/navigation_offset = Vector2( 17, 10.5 )
1/shapes = [  ]
1/z_index = 0
2/name = "Grass3"
2/texture = ExtResource( 3 )
2/tex_offset = Vector2( 0, -6 )
2/modulate = Color( 1, 1, 1, 1 )
2/region = Rect2( 0, 0, 34, 48 )
2/tile_mode = 0
2/occluder_offset = Vector2( 17, 24 )
2/navigation_offset = Vector2( 17, 24 )
2/shapes = [  ]
2/z_index = 0
