[gd_resource type="TileSet" load_steps=6 format=2]

[ext_resource path="res://Tilesets/Demo/Grass3.png" type="Texture" id=1]
[ext_resource path="res://Tilesets/Demo/Sand1.png" type="Texture" id=2]
[ext_resource path="res://Tilesets/Demo/Rock3.png" type="Texture" id=3]
[ext_resource path="res://Tilesets/Demo/Grass2.png" type="Texture" id=4]

[sub_resource type="ConvexPolygonShape2D" id=1]
points = PoolVector2Array( -16, -1, 0, -9, 16, -1, 0, 7 )

[resource]
0/name = "Grass"
0/texture = ExtResource( 1 )
0/tex_offset = Vector2( 0, 2 )
0/modulate = Color( 1, 1, 1, 1 )
0/region = Rect2( 0, 0, 34, 21 )
0/tile_mode = 0
0/occluder_offset = Vector2( 17, 10.5 )
0/navigation_offset = Vector2( 17, 10.5 )
0/shapes = [  ]
0/z_index = 0
1/name = "Dirt"
1/texture = ExtResource( 2 )
1/tex_offset = Vector2( 0, 2 )
1/modulate = Color( 1, 1, 1, 1 )
1/region = Rect2( 0, 0, 34, 21 )
1/tile_mode = 0
1/occluder_offset = Vector2( 17, 10.5 )
1/navigation_offset = Vector2( 17, 10.5 )
1/shapes = [  ]
1/z_index = 0
2/name = "Ruins"
2/texture = ExtResource( 3 )
2/tex_offset = Vector2( 0, -20 )
2/modulate = Color( 1, 1, 1, 1 )
2/region = Rect2( 0, 0, 34, 48 )
2/tile_mode = 0
2/occluder_offset = Vector2( 17, 24 )
2/navigation_offset = Vector2( 17, 24 )
2/shapes = [ {
"autotile_coord": Vector2( 0, 0 ),
"one_way": false,
"one_way_margin": 1.0,
"shape": SubResource( 1 ),
"shape_transform": Transform2D( 1, 0, 0, 1, 17, 24 )
} ]
2/z_index = 0
3/name = "Grass2"
3/texture = ExtResource( 4 )
3/tex_offset = Vector2( 0, 2 )
3/modulate = Color( 1, 1, 1, 1 )
3/region = Rect2( 0, 0, 34, 21 )
3/tile_mode = 0
3/occluder_offset = Vector2( 17, 10.5 )
3/navigation_offset = Vector2( 17, 10.5 )
3/shapes = [  ]
3/z_index = 0
