[gd_scene load_steps=5 format=2]

[ext_resource path="res://Objects/Arrow.gd" type="Script" id=1]
[ext_resource path="res://Enemy/Enemy-Sheet_Bow.png" type="Texture" id=2]
[ext_resource path="res://Enemy/Enemy-Sheet_Sword.png" type="Texture" id=3]

[sub_resource type="RectangleShape2D" id=1]
extents = Vector2( 6, 6 )

[node name="Arrow" type="Node2D"]
script = ExtResource( 1 )

[node name="ArrowBody" type="Sprite" parent="."]
texture = ExtResource( 2 )
offset = Vector2( 0, -12 )
vframes = 4
hframes = 4
frame = 10

[node name="ArrowShadow" type="Sprite" parent="."]
modulate = Color( 0, 0, 0, 0.501961 )
self_modulate = Color( 0, 0, 0, 0.501961 )
position = Vector2( 0, -5 )
scale = Vector2( 0.5, 0.25 )
texture = ExtResource( 3 )
offset = Vector2( 0, 8 )
vframes = 4
hframes = 4
frame = 15

[node name="AttackArea" type="Area2D" parent="."]
position = Vector2( 0, -5 )
collision_layer = 7
collision_mask = 7

[node name="CollisionShape2D" type="CollisionShape2D" parent="AttackArea"]
position = Vector2( 0, 5 )
shape = SubResource( 1 )
[connection signal="body_entered" from="AttackArea" to="." method="_on_AttackArea_body_entered"]
