[gd_scene load_steps=3 format=2]

[ext_resource path="res://Fonts/TomeOfTheUnknown.ttf" type="DynamicFontData" id=1]

[sub_resource type="DynamicFont" id=1]
size = 32
use_filter = true
font_data = ExtResource( 1 )

[node name="HUD" type="Control"]
anchor_right = 1.0
anchor_bottom = 1.0
margin_left = 1.22772
margin_top = 1.22775
margin_right = 1.22778
margin_bottom = 1.22778

[node name="LifeTag" type="Label" parent="."]
margin_left = 17.0142
margin_top = 15.4626
margin_right = 165.014
margin_bottom = 56.4626
custom_fonts/font = SubResource( 1 )
custom_colors/font_color = Color( 0, 0, 0, 1 )
text = "Spirit Life"

[node name="ForestLife" type="ProgressBar" parent="."]
margin_left = 661.0
margin_top = 16.0
margin_right = 1004.0
margin_bottom = 61.0

[node name="TextureProgress" type="TextureProgress" parent="."]
margin_left = 18.0
margin_top = 63.0
margin_right = 227.0
margin_bottom = 96.0
step = 5.0
fill_mode = 1
tint_under = Color( 0.14902, 0.145098, 0.145098, 1 )
tint_over = Color( 0.337255, 0.74902, 0.372549, 1 )
tint_progress = Color( 0.819608, 0.184314, 0.184314, 1 )
