[gd_scene load_steps=3 format=2]

[ext_resource path="res://Enemy/EnemyManagement/EnemySpawnManager.gd" type="Script" id=1]
[ext_resource path="res://Audio/270404__jingle-achievement-00.wav" type="AudioStream" id=2]

[node name="EnemySpawnList" type="Node2D"]
script = ExtResource( 1 )

[node name="SpawnSpacer" type="Timer" parent="."]
wait_time = 2.0
one_shot = true

[node name="WaveInterval" type="Timer" parent="."]
wait_time = 5.0
one_shot = true
autostart = true

[node name="AudioStreamPlayer2D" type="AudioStreamPlayer" parent="."]
stream = ExtResource( 2 )
volume_db = -17.776
[connection signal="timeout" from="SpawnSpacer" to="." method="spawn_squad"]
[connection signal="timeout" from="WaveInterval" to="." method="start_next_wave"]
